# LOKI
stratumproxy miner
proxywallet EUREWALLETADRESSE
proxypool1 loki.ingest.cryptoknight.cc:7733
proxypool2 loki.ingest.cryptoknight.cc:7733
globalminer xmr-stak
xmr-stak=flags --amd /home/ethos/xmr-stak-amd.stub.conf --currency cryptonight_heavy
poolpass1 x
safevolt disabled
cor 2ae4aa 1210 1210 1210 1210 1210 1210 1210 1210
mem 2ae4aa 2200 2200 2200 2200 2200 2200 2200 2200 
vlt 2ae4aa 925 925 925 925 925 925 925 925