# TUBE
stratumproxy miner
globalminer xmr-stak
globalname disabled
proxywallet EUREWALLETADRESSE
proxypool1 tube.ingest.cryptoknight.cc:5633
proxypool2 tube.ingest.cryptoknight.cc:5633
xmr-stak=flags --amd /home/ethos/xmr-stak-amd.stub.conf --currency cryptonight_bittube2 --noNVIDIA
poolpass1 x
safevolt disabled
cor 2ae4aa 1180 1180 1180 1180 1180 1180 1180 1180
mem 2ae4aa 2150 2150 2150 2150 2150 2150 2150 2150
vlt 2ae4aa 925 925 925 925 925 925 925 925