# XMR
stratumproxy enabled
globalminer claymore-xmr
globalname disabled
proxywallet EUREWALLETADRESSE
proxypool1 xmrpool.eu:7777
proxypool2 xmrpool.eu:7777
poolpass1 x
claymore-xmr=flags -pow7 1
safevolt disabled
cor 2ae4aa 1180 1180 1180 1180 1180 1180 1180 1180
mem 2ae4aa 2150 2150 2150 2150 2150 2150 2150 2150
vlt 2ae4aa 925 925 925 925 925 925 925 925